…
# Get the results into R

```r
py$x_test %>% as_tibble()
```

```
## # A tibble: 10,000 x 784
##       V1    V2    V3    V4    V5    V6    V7    V8    V9   V10   V11   V12   V13
##    <dbl> <dbl> <dbl> <dbl> <dbl> <dbl> <dbl> <dbl> <dbl> <dbl> <dbl> <dbl> <dbl>
##  1     0     0     0     0     0     0     0     0     0     0     0     0     0
##  2     0     0     0     0     0     0     0     0     0     0     0     0     0
##  3     0     0     0     0     0     0     0     0     0     0     0     0     0
##  4     0     0     0     0     0     0     0     0     0     0     0     0     0
##  5     0     0     0     0     0     0     0     0     0     0     0     0     0
##  6     0     0     0     0     0     0     0     0     0     0     0     0     0
##  7     0     0     0     0     0     0     0     0     0     0     0     0     0
##  8     0     0     0     0     0     0     0     0     0     0     0     0     0
##  9     0     0     0     0     0     0     0     0     0     0     0     0     0
## 10     0     0     0     0     0     0     0     0     0     0     0     0     0
## # ... with 9,990 more rows, and 771 more variables: V14 <dbl>, V15 <dbl>,
## #   V16 <dbl>, V17 <dbl>, V18 <dbl>, V19 <dbl>, V20 <dbl>, V21 <dbl>,
## #   V22 <dbl>, V23 <dbl>, V24 <dbl>, V25 <dbl>, V26 <dbl>, V27 <dbl>,
## #   V28 <dbl>, V29 <dbl>, V30 <dbl>, V31 <dbl>, V32 <dbl>, V33 <dbl>,
## #   V34 <dbl>, V35 <dbl>, V36 <dbl>, V37 <dbl>, V38 <dbl>, V39 <dbl>,
## #   V40 <dbl>, V41 <dbl>, V42 <dbl>, V43 <dbl>, V44 <dbl>, V45 <dbl>,
## #   V46 <dbl>, V47 <dbl>, V48 <dbl>, V49 <dbl>, V50 <dbl>, V51 <dbl>,
## #   V52 <dbl>, V53 <dbl>, V54 <dbl>, V55 <dbl>, V56 <dbl>, V57 <dbl>,
## #   V58 <dbl>, V59 <dbl>, V60 <dbl>, V61 <dbl>, V62 <dbl>, V63 <dbl>,
…
